…
# etc...
```


```
## # A tibble: 670,191 x 17
##    st_id crs_sbj crs_catalog crs_name numgrade numgrade_w crs_retake crs_term
##    <fct> <fct>   <fct>       <fct>       <dbl>      <dbl> <fct>         <int>
##  1 1343… CS      0441        DISCRET…     4             0 N              2171
##  2 1343… STAT    1000        APPLIED…     4             0 N              2174
##  3 1343… STAT    1361        STATSTC…     3.25          0 N              2184
##  4 1343… MATH    0240        ANALYTC…     4             0 N              2187
##  5 1343… HPS     1616        ARTFCL …     4             0 N              2191
##  6 1343… STAT    1631        INTERME…     3.25          0 N              2191
##  7 AE6D… CHEM    0310        ORGANIC…     0             0 N              2084
##  8 AE6D… MATH    0230        ANALYTC…     0             0 N              2114
##  9 AE6D… PHYS    0175        BASC PH…     0             0 N              2114
## 10 AE6D… MATH    0230        ANALYTC…     0             0 N              2117
## # … with 670,181 more rows, and 9 more variables: crs_term_yr <chr>,
## #   crs_term_sem <chr>, summer_crs <dbl>, TERM_REF <int>,
## #   enrl_from_cohort <dbl>, crs_credits <dbl>, crs_component <fct>,
## #   class_number <int>, current_major <fct>
```
…
# repeat for Bio2, Chem1, Chem2, Phys1, Phys2
```


```
## # A tibble: 7,368 x 18
##    st_id crs_sbj crs_catalog crs_name numgrade numgrade_w crs_retake crs_term
##    <fct> <fct>   <fct>       <fct>       <dbl>      <dbl> <fct>         <int>
##  1 0036… BIOSC   0150        FOUNDAT…     0             0 R              2131
##  2 003E… BIOSC   0150        FOUNDAT…     3             0 N              2101
##  3 0042… BIOSC   0150        FOUNDAT…     2             0 N              2121
##  4 0042… BIOSC   0150        FOUNDAT…     3.25          0 N              2071
##  5 0043… BIOSC   0150        FOUNDAT…     3.25          0 N              2164
##  6 0043… BIOSC   0150        FOUNDAT…     1             0 R              2121
##  7 0047… BIOSC   0150        FOUNDAT…     3             0 N              2101
##  8 004D… BIOSC   0150        FOUNDAT…     3             0 N              2191
##  9 0061… BIOSC   0150        FOUNDAT…     3.75          0 N              2161
## 10 0067… BIOSC   0150        FOUNDAT…     2             0 N              2121
## # … with 7,358 more rows, and 10 more variables: crs_term_yr <chr>,
## #   crs_term_sem <chr>, summer_crs <dbl>, TERM_REF <int>,
## #   enrl_from_cohort <dbl>, crs_credits <dbl>, crs_component <fct>,
## #   class_number <int>, current_major <fct>, crs_retake_num <int>
```
…
# repeat for Chem, Phys
```
   

```
## # A tibble: 22,976 x 8
##    st_id aptaker apskipper apskipper_2 tookcourse tookcourse_2 apscore
##    <fct>   <dbl>     <dbl>       <dbl>      <dbl>        <dbl> <chr>  
##  1 0000…       0         0           0          0            0 <NA>   
##  2 0005…       0         0           0          0            0 <NA>   
##  3 0009…       0         0           0          0            0 <NA>   
##  4 000E…       0         0           0          0            0 <NA>   
##  5 000E…       0         0           0          0            0 <NA>   
##  6 0019…       0         0           0          0            0 <NA>   
##  7 001D…       1         1           1          0            0 5      
##  8 001F…       0         0           0          0            0 <NA>   
##  9 001F…       0         0           0          0            0 <NA>   
## 10 0029…       0         0           0          0            0 <NA>   
## # … with 22,966 more rows, and 1 more variable: apscore_full <dbl>
```
…
# repeat for Chem, Phys
```


```
## # A tibble: 22,976 x 64
##    discipline st_id firstgen ethniccode ethniccode_cat   urm gender female
##    <chr>      <fct>    <dbl> <fct>               <dbl> <dbl>  <dbl>  <dbl>
##  1 BIO        0035…        0 ASIAN                   2     0      1      1
##  2 BIO        003E…        0 WHITE                   0     0      1      1
##  3 BIO        0043…        0 WHITE                   0     0      1      1
##  4 BIO        0047…        0 WHITE                   0     0      1      1
##  5 BIO        004D…        0 WHITE                   0     0      1      1
##  6 BIO        0061…        0 WHITE                   0     0      0      0
##  7 BIO        006A…        1 HISPA                   1     1      0      0
##  8 BIO        0076…        0 WHITE                   0     0      0      0
##  9 BIO        0080…        0 WHITE                   0     0      0      0
## 10 BIO        0085…        1 ASIAN                   2     0      0      0
## # … with 22,966 more rows, and 56 more variables: famincome <int>,
## #   lowincomflag <dbl>, transfer <dbl>, international <dbl>, ell <dbl>,
## #   us_hs <dbl>, cohort <dbl>, cohort_2013 <dbl>, cohort_2014 <dbl>,
## #   cohort_2015 <dbl>, cohort_2016 <dbl>, cohort_2017 <dbl>, cohort_2018 <dbl>,
## #   apyear <dbl>, englsr <dbl>, mathsr <dbl>, hsgpa <dbl>, crs_sbj.x <fct>,
## #   crs_catalog.x <fct>, crs_name.x <fct>, numgrade.x <dbl>,
## #   numgrade_w.x <dbl>, crs_retake.x <fct>, crs_term.x <int>,
## #   crs_term_yr.x <chr>, crs_term_sem.x <chr>, summer_crs.x <dbl>,
## #   TERM_REF.x <int>, enrl_from_cohort.x <dbl>, crs_credits.x <dbl>,
…
